{
    "name": "sutiramu",
    "creatureType": "arthropod",
    "groups": [
        "predator"
    ],
    "entityClass": "com.lycanitesmobs.core.entity.creature.EntitySutiramu",
    "modelClass": "com.lycanitesmobs.client.model.creature.ModelSutiramu",
    "loadDefault": true,
    "enabled": true,
    "spawning": {
        "enabled": true,
        "spawners": [
            "monster",
            "beast"
        ],
        "disableSubspecies": false,
        "dimensionIds": [
            "minecraft:the_nether",
            "minecraft:the_end"
        ],
        "dimensionListType": "blacklist",
        "ignoreBiome": false,
        "biomeTags": [
            "sandy",
            "wasteland",
            "mesa",
            "-cold",
            "-snowy"
        ],
        "spawnWeight": 8,
        "dungeonWeight": 200,
        "spawnAreaLimit": 5,
        "spawnGroupMin": 1,
        "spawnGroupMax": 3,
        "spawnsInLight": false,
        "spawnsInDark": true,
        "worldDayMin": -1,
        "despawnNatural": true,
        "despawnForced": false
    },
    "width": 1.9,
    "height": 1.9,
    "experience": 5,
    "health": 25,
    "defense": 1,
    "armor": 0,
    "speed": 28,
    "damage": 2,
    "attackSpeed": 1,
    "rangedSpeed": 1,
    "effectDuration": 5,
    "effectAmplifier": 0,
    "pierce": 1,
    "sight": 24,
    "knockbackResistance": 0,
    "eggBackColor": "#83553b",
    "eggForeColor": "#2c1c0f",
    "subspecies": [
        {
            "index": 0,
            "variants": [
                {
                    "index": 1,
                    "name": "golden",
                    "type": "uncommon"
                },
                {
                    "index": 2,
                    "name": "scarlet",
                    "type": "uncommon"
                }
            ]
        }
    ],
    "elements": [
        "gravity",
        "quake"
    ],
    "diets": [
        "carnivore",
        "insectivore",
        "frugivore"
    ],
    "peaceful": false,
    "summonable": true,
    "tameable": false,
    "mountable": false,
    "summonCost": 2,
    "dungeonLevel": 1,
    "drops": [
        {
            "item": "minecraft:flint",
            "minAmount": 1,
            "maxAmount": 2,
            "chance": 1
        },
        {
            "item": "minecraft:iron_ore",
            "minAmount": 1,
            "maxAmount": 2,
            "chance": 0.5
        },
        {
            "item": "minecraft:gold_nugget",
            "minAmount": 1,
            "maxAmount": 2,
            "chance": 0.25
        },
        {
            "item": "minecraft:spider_eye",
            "minAmount": 1,
            "maxAmount": 2,
            "chance": 0.25
        }
    ],
    "sizeScale": 1,
    "hitboxScale": 1
}