{
	"name": "nether",
	"type": "spawner",
	"enabled": true,
	"loadDefault": true,
	"mobCountMin": 6,
	"ignoreBiomes": true,
	"ignoreLightLevel": true,
	"conditions": [
		{
			"type": "world",
			"dimensionIds": ["minecraft:the_nether"],
			"dimensionListType": "whitelist"
		}
	],
	"triggers": [
		{
			"type": "world",
			"chance": 1,
			"tickRate": 800
		}
	],
	"locations": [
		{
			"type": "random",
			"rangeMin": [16, 0, 16],
			"rangeMax": [32, 32, 32],
			"sorting": "random",
			"limit": 32,
			"solidGround": true
		}
	]
}