{
	"name": "surface",
	"type": "spawner",
	"enabled": true,
	"loadDefault": true,
	"mobCountMin": 2,
	"ignoreBiomes": false,
	"ignoreLightLevel": false,
	"groupLimitRange": 64,
	"conditions": [],
	"triggers": [
		{
			"type": "world",
			"chance": 0.25,
			"tickRate": 3200
		}
	],
	"locations": [
		{
			"type": "random",
			"rangeMin": [32, 0, 32],
			"rangeMax": [42, 48, 42],
			"sorting": "random",
			"limit": 32,
			"solidGround": true,
			"underground": false
		}
	],
	"mobSpawns": [
		{
			"mobId": "lycanitesmobs:wisp",
			"weight": 8
		},
		{
			"mobId": "lycanitesmobs:pixen",
			"weight": 16
		}
	]
}