{
	"name": "asmodeus",
	"type": "event",
	"enabled": true,
	"loadDefault": true,
	"channel": "boss",
	"duration": 600,
	"conditions": [
		{
			"type": "world",
			"dimensionIds": [],
			"dimensionListType": "blacklist"
		}
	],
	"levelBoostMax": 0,
	"triggers": [
		{
			"type": "altar",
			"altarName": "AsmodeusAltar"
		}
	],
	"effects": [
		{
			"type": "structure",
			"structureBuilderName": "asmodeus",
			"eventTicksMax": 600 
		}
	]
}