{
  "result": {
    "item": "lycanitesmobs:bucketrabbitooze",
    "count": 1
  },
  "ingredients": [
    {
      "item": "lycanitesmobs:bucketooze",
      "item": "minecraft:ghast_tear"
    }
  ],
  "type": "minecraft:crafting_shapeless"
}