{
  "result": {
    "item": "lycanitesmobs:pale_soup"
  },
  "ingredients": [
    {
      "item": "minecraft:milk_bucket"
    },
    {
      "item": "minecraft:bowl"
    },
    {
      "item": "lycanitesmobs:cooked_yeti_meat"
    }
  ],
  "type": "minecraft:crafting_shapeless"
}