{
	"replace": false,
	"values": [
		"minecraft:beef",
		"minecraft:cooked_beef",
		"lycanitesmobs:raw_aspid_meat",
		"lycanitesmobs:cooked_aspid_meat",
		"lycanitesmobs:raw_arisaur_meat",
		"lycanitesmobs:cooked_arisaur_meat",
		"lycanitesmobs:raw_chupacabra_meat",
		"lycanitesmobs:cooked_chupacabra_meat",
		"minecraft:porkchop",
		"minecraft:cooked_porkchop",
		"lycanitesmobs:raw_maka_meat",
		"lycanitesmobs:cooked_maka_meat",
		"lycanitesmobs:raw_yeti_meat",
		"lycanitesmobs:cooked_yeti_meat",
		"lycanitesmobs:raw_pinky_meat",
		"lycanitesmobs:cooked_pinky_meat",
		"minecraft:mutton",
		"minecraft:cooked_mutton",
		"lycanitesmobs:raw_yale_meat",
		"lycanitesmobs:cooked_yale_meat",
		"minecraft:chicken",
		"minecraft:cooked_chicken",
		"lycanitesmobs:raw_joust_meat",
		"lycanitesmobs:cooked_joust_meat",
		"minecraft:rabbit",
		"minecraft:cooked_rabbit",
		"lycanitesmobs:raw_concapede_meat",
		"lycanitesmobs:cooked_concapede_meat"
	]
}